Mini Projects/Mohammed/02_Minor/async_fifo_dump.vcd
$date
Sat Mar 23 13:08:10 2024
$end
$version
Riviera-PRO Version 2022.04.117.8517
$end
$timescale
1 ns
$end

$scope module async_fifo_TB $end
$var wire 8 ! data_out [7:0] $end
$var wire 1 " full $end
$var wire 1 # empty $end
$var reg 8 $ data_in [7:0] $end
$var reg 1 % w_en $end
$var reg 1 & wclk $end
$var reg 1 ' wrst_n $end
$var reg 1 ( r_en $end
$var reg 1 ) rclk $end
$var reg 1 * rrst_n $end
$var reg 8 + wdata [7:0] $end
$var parameter 32 , DATA_WIDTH [31:0] $end

$scope module as_fifo $end
$var wire 1 - wclk $end
$var wire 1 . wrst_n $end
$var wire 1 / rclk $end
$var wire 1 0 rrst_n $end
$var wire 1 1 w_en $end
$var wire 1 2 r_en $end
$var wire 8 3 data_in [7:0] $end
$var wire 7 4 waddr [6:0] $end
$var wire 7 4 raddr [6:0] $end
$var reg 8 5 data_out [7:0] $end
$var reg 1 6 full $end
$var reg 1 7 empty $end
$var reg 8 8 g_wptr_sync [7:0] $end
$var reg 8 9 g_rptr_sync [7:0] $end
$var reg 8 : b_wptr [7:0] $end
$var reg 8 ; b_rptr [7:0] $end
$var reg 8 < g_wptr [7:0] $end
$var reg 8 = g_rptr [7:0] $end
$var parameter 32 > DEPTH [31:0] $end
$var parameter 32 ? DATA_WIDTH [31:0] $end
$var parameter 32 @ PTR_WIDTH [31:0] $end

$scope module sync_wptr $end
$var wire 1 A clk $end
$var wire 1 B rst_n $end
$var wire 8 C d_in [7:0] $end
$var reg 8 D d_out [7:0] $end
$var reg 8 E q1 [7:0] $end
$var parameter 32 F WIDTH [31:0] $end
$upscope $end


$scope module sync_rptr $end
$var wire 1 G clk $end
$var wire 1 H rst_n $end
$var wire 8 I d_in [7:0] $end
$var reg 8 J d_out [7:0] $end
$var reg 8 K q1 [7:0] $end
$var parameter 32 L WIDTH [31:0] $end
$upscope $end


$scope module wptr_h $end
$var wire 1 M wclk $end
$var wire 1 N wrst_n $end
$var wire 1 O w_en $end
$var wire 8 P g_rptr_sync [7:0] $end
$var wire 1 Q wfull $end
$var reg 8 R b_wptr [7:0] $end
$var reg 8 S g_wptr [7:0] $end
$var reg 1 T full $end
$var reg 8 U b_wptr_next [7:0] $end
$var reg 8 V g_wptr_next [7:0] $end
$var reg 1 W wrap_around $end
$var parameter 32 X PTR_WIDTH [31:0] $end
$upscope $end


$scope module rptr_h $end
$var wire 1 Y rclk $end
$var wire 1 Z rrst_n $end
$var wire 1 [ r_en $end
$var wire 8 \ g_wptr_sync [7:0] $end
$var wire 1 ] rempty $end
$var reg 8 ^ b_rptr [7:0] $end
$var reg 8 _ g_rptr [7:0] $end
$var reg 1 ` empty $end
$var reg 8 a b_rptr_next [7:0] $end
$var reg 8 b g_rptr_next [7:0] $end
$var parameter 32 c PTR_WIDTH [31:0] $end
$upscope $end


$scope module fifom $end
$var wire 1 d wclk $end
$var wire 1 e w_en $end
$var wire 1 f rclk $end
$var wire 1 g r_en $end
$var wire 9 h b_wptr [8:0] $end
$var wire 9 i b_rptr [8:0] $end
$var wire 8 j data_in [7:0] $end
$var wire 1 " full $end
$var wire 1 # empty $end
$var reg 8 k data_out [7:0] $end
$var parameter 32 l DEPTH [31:0] $end
$var parameter 32 m DATA_WIDTH [31:0] $end
$var parameter 32 n PTR_WIDTH [31:0] $end
$upscope $end

$upscope $end

$upscope $end

$enddefinitions $end
$dumpvars
bx !
0"
1#
b0 $
0%
0&
0'
0(
0)
0*
bx +
b1000 ,
0-
0.
0/
00
01
02
b0 3
bz 4
bx 5
06
17
bx 8
bx 9
b0 :
b0 ;
b0 <
b0 =
b1011010 >
b1000 ?
b111 @
0A
0B
b0 C
bx D
bx E
b111 F
0G
0H
b0 I
bx J
bx K
b111 L
0M
0N
0O
bx P
xQ
b0 R
b0 S
0T
b0 U
b0 V
xW
b111 X
0Y
0Z
0[
bx \
x]
b0 ^
b0 _
1`
b0 a
b0 b
b111 c
0d
0e
0f
0g
bz00000000 h
bz00000000 i
b0 j
0"
1#
bx k
b1011010 l
b1000 m
b1000 n
$end
#100
1&
1)
1/
1Y
1f
1A
1-
1M
1d
1G
b0 E
b0 D
b0 K
b0 J
b0 8
b0 9
b0 P
b0 \
1]
0Q
#200
0&
0)
0/
0Y
0f
0A
0-
0M
0d
0G
#300
1&
1)
1/
1Y
1f
1A
1-
1M
1d
1G
#400
0&
0)
0/
0Y
0f
0A
0-
0M
0d
0G
#500
1&
1)
1/
1Y
1f
1A
1-
1M
1d
1G
#600
0&
0)
0/
0Y
0f
0A
0-
0M
0d
0G
#700
1&
1)
1/
1Y
1f
1A
1-
1M
1d
1G
#800
0&
0)
0/
0Y
0f
0A
0-
0M
0d
0G
#900
1&
1)
1/
1Y
1f
1A
1-
1M
1d
1G
#1000
0&
0)
0/
0Y
0f
0A
0-
0M
0d
0G
#1100
1&
1)
1/
1Y
1f
1A
1-
1M
1d
1G
#1200
0&
0)
0/
0Y
0f
0A
0-
0M
0d
0G
#1300
1&
1)
1/
1Y
1f
1A
1-
1M
1d
1G
#1400
0&
0)
0/
0Y
0f
0A
0-
0M
0d
0G
#1500
1&
1)
1/
1Y
1f
1A
1-
1M
1d
1G
#1600
0&
0)
0/
0Y
0f
0A
0-
0M
0d
0G
#1700
1&
1)
1/
1Y
1f
1A
1-
1M
1d
1G
#1800
0&
0)
0/
0Y
0f
0A
0-
0M
0d
0G
#1900
1&
1)
1/
1Y
1f
1A
1-
1M
1d
1G
1'
1.
1N
1H
#2000
0&
0)
0/
0Y
0f
0A
0-
0M
0d
0G
#2100
1&
1)
1/
1Y
1f
1A
1-
1M
1d
1G
1%
b11101111 $
b11101111 3
b11101111 j
11
1O
1e
b1 U
b1 V
#2200
0&
0)
0/
0Y
0f
0A
0-
0M
0d
0G
#2300
1&
1)
1/
1Y
1f
1A
1-
1M
1d
1G
0%
01
0O
0e
b0 U
b0 V
b1 R
b1 S
b1 :
b1 U
b1 <
b11101111 k
b1 V
b11101111 5
b11101111 !
b1 C
bz00000001 h
#2400
0&
0)
0/
0Y
0f
0A
0-
0M
0d
0G
#2500
1&
1)
1/
1Y
1f
1A
1-
1M
1d
1G
1%
b11010110 $
b11010110 3
b11010110 j
11
1O
1e
b10 U
b11 V
#2600
0&
0)
0/
0Y
0f
0A
0-
0M
0d
0G
#2700
1&
1)
1/
1Y
1f
1A
1-
1M
1d
1G
0%
01
0O
0e
b1 U
b1 V
b10 R
b11 S
b10 :
b10 U
b11 <
b11 V
b11 C
bz00000010 h
#2800
0&
0)
0/
0Y
0f
0A
0-
0M
0d
0G
#2900
1&
1)
1/
1Y
1f
1A
1-
1M
1d
1G
1%
b10100 $
b10100 3
b10100 j
11
1O
1e
b11 U
b10 V
#3000
0&
0)
0/
0Y
0f
0A
0-
0M
0d
0G
#3100
1&
1)
1/
1Y
1f
1A
1-
1M
1d
1G
0%
01
0O
0e
b10 U
b11 V
b11 R
b10 S
b11 :
b11 U
b10 <
b10 V
b10 C
bz00000011 h
#3200
0&
0)
0/
0Y
0f
0A
0-
0M
0d
0G
#3300
1&
1)
1/
1Y
1f
1A
1-
1M
1d
1G
1%
b1011000 $
b1011000 3
b1011000 j
11
1O
1e
b100 U
b110 V
#3400
0&
0)
0/
0Y
0f
0A
0-
0M
0d
0G
#3500
1&
1)
1/
1Y
1f
1A
1-
1M
1d
1G
0%
01
0O
0e
b11 U
b10 V
b100 R
b110 S
b100 :
b100 U
b110 <
b110 V
b110 C
bz00000100 h
#3600
0&
0)
0/
0Y
0f
0A
0-
0M
0d
0G
#3700
1&
1)
1/
1Y
1f
1A
1-
1M
1d
1G
1%
b10011101 $
b10011101 3
b10011101 j
11
1O
1e
b101 U
b111 V
#3800
0&
0)
0/
0Y
0f
0A
0-
0M
0d
0G
#3900
1&
1)
1/
1Y
1f
1A
1-
1M
1d
1G
0%
1*
10
1Z
1B
01
0O
0e
b100 U
b110 V
b101 R
b111 S
b101 :
b101 U
b111 <
b111 V
b111 C
bz00000101 h
#4000
0&
0)
0/
0Y
0f
0A
0-
0M
0d
0G
#4100
1&
1)
1/
1Y
1f
1A
1-
1M
1d
1G
1%
b1110011 $
b1110011 3
b1110011 j
11
1O
1e
b110 U
b101 V
b111 E
#4200
0&
0)
0/
0Y
0f
0A
0-
0M
0d
0G
#4300
1&
1)
1/
1Y
1f
1A
1-
1M
1d
1G
0%
01
0O
0e
b101 U
b111 V
b111 D
b110 R
b101 S
b111 8
b110 :
b110 U
b101 <
b101 V
b101 C
bz00000110 h
b111 \
0]
#4400
0&
0)
0/
0Y
0f
0A
0-
0M
0d
0G
#4500
1&
1)
1/
1Y
1f
1A
1-
1M
1d
1G
1%
b1100000 $
b1100000 3
b1100000 j
11
1O
1e
b111 U
b100 V
b101 E
0`
07
0#
0#
#4600
0&
0)
0/
0Y
0f
0A
0-
0M
0d
0G
#4700
1&
1)
1/
1Y
1f
1A
1-
1M
1d
1G
0%
1(
b11101111 +
12
1[
1g
01
0O
0e
b1 a
b110 U
b1 b
b101 V
b101 D
b111 R
b100 S
b101 8
b111 :
b111 U
b100 <
b100 V
b100 C
bz00000111 h
b101 \
#4800
0&
0)
0/
0Y
0f
0A
0-
0M
0d
0G
#4900
1&
1)
1/
1Y
1f
1A
1-
1M
1d
1G
1%
b1001001 $
0(
02
0[
0g
b1001001 3
b1001001 j
11
1O
1e
b0 a
b1000 U
b0 b
b1100 V
b100 E
b1 ^
b1 _
b1 ;
b1 a
b1 =
b1 b
b1 I
bz00000001 i
b11010110 k
b11010110 5
b11010110 !
#5000
0&
0)
0/
0Y
0f
0A
0-
0M
0d
0G
#5100
1&
1)
1/
1Y
1f
1A
1-
1M
1d
1G
0%
1(
b11010110 +
12
1[
1g
01
0O
0e
b10 a
b111 U
b11 b
b100 V
b100 D
b1 K
b1000 R
b1100 S
b100 8
b1000 :
b1000 U
b1100 <
b1100 V
b1100 C
bz00001000 h
b100 \
#5200
0&
0)
0/
0Y
0f
0A
0-
0M
0d
0G
#5300
1&
1)
1/
1Y
1f
1A
1-
1M
1d
1G
1%
b10101 $
0(
02
0[
0g
b10101 3
b10101 j
11
1O
1e
b1 a
b1001 U
b1 b
b1101 V
b1100 E
b10 ^
b11 _
b1 J
b10 ;
b10 a
b11 =
b1 9
b11 b
b1 P
b11 I
bz00000010 i
b10100 k
b10100 5
b10100 !
#5400
0&
0)
0/
0Y
0f
0A
0-
0M
0d
0G
#5500
1&
1)
1/
1Y
1f
1A
1-
1M
1d
1G
0%
1(
b10100 +
12
1[
1g
01
0O
0e
b11 a
b1000 U
b10 b
b1100 V
b1100 D
b11 K
b1001 R
b1101 S
b1100 8
b1001 :
b1001 U
b1101 <
b1101 V
b1101 C
bz00001001 h
b1100 \
#5600
0&
0)
0/
0Y
0f
0A
0-
0M
0d
0G
#5700
1&
1)
1/
1Y
1f
1A
1-
1M
1d
1G
1%
b10101110 $
0(
02
0[
0g
b10101110 3
b10101110 j
11
1O
1e
b10 a
b1010 U
b11 b
b1111 V
b1101 E
b11 ^
b10 _
b11 J
b11 ;
b11 a
b10 =
b11 9
b10 b
b11 P
b10 I
bz00000011 i
b1011000 k
b1011000 5
b1011000 !
#5800
0&
0)
0/
0Y
0f
0A
0-
0M
0d
0G
#5900
1&
1)
1/
1Y
1f
1A
1-
1M
1d
1G
0%
1(
b1011000 +
12
1[
1g
01
0O
0e
b100 a
b1001 U
b110 b
b1101 V
b1101 D
b10 K
b1010 R
b1111 S
b1101 8
b1010 :
b1010 U
b1111 <
b1111 V
b1111 C
bz00001010 h
b1101 \
#6000
0&
0)
0/
0Y
0f
0A
0-
0M
0d
0G
#6100
1&
1)
1/
1Y
1f
1A
1-
1M
1d
1G
1%
b10100101 $
0(
02
0[
0g
b10100101 3
b10100101 j
11
1O
1e
b11 a
b1011 U
b10 b
b1110 V
b1111 E
b100 ^
b110 _
b10 J
b100 ;
b100 a
b110 =
b10 9
b110 b
b10 P
b110 I
bz00000100 i
b10011101 k
b10011101 5
b10011101 !
#6200
0&
0)
0/
0Y
0f
0A
0-
0M
0d
0G
#6300
1&
1)
1/
1Y
1f
1A
1-
1M
1d
1G
0%
1(
b10011101 +
12
1[
1g
01
0O
0e
b101 a
b1010 U
b111 b
b1111 V
b1111 D
b110 K
b1011 R
b1110 S
b1111 8
b1011 :
b1011 U
b1110 <
b1110 V
b1110 C
bz00001011 h
b1111 \
#6400
0&
0)
0/
0Y
0f
0A
0-
0M
0d
0G
#6500
1&
1)
1/
1Y
1f
1A
1-
1M
1d
1G
1%
b10101101 $
0(
02
0[
0g
b10101101 3
b10101101 j
11
1O
1e
b100 a
b1100 U
b110 b
b1010 V
b1110 E
b101 ^
b111 _
b110 J
b101 ;
b101 a
b111 =
b110 9
b111 b
b110 P
b111 I
bz00000101 i
b1110011 k
b1110011 5
b1110011 !
#6600
0&
0)
0/
0Y
0f
0A
0-
0M
0d
0G
#6700
1&
1)
1/
1Y
1f
1A
1-
1M
1d
1G
0%
1(
b1110011 +
12
1[
1g
01
0O
0e
b110 a
b1011 U
b101 b
b1110 V
b1110 D
b111 K
b1100 R
b1010 S
b1110 8
b1100 :
b1100 U
b1010 <
b1010 V
b1010 C
bz00001100 h
b1110 \
#6800
0&
0)
0/
0Y
0f
0A
0-
0M
0d
0G
#6900
1&
1)
1/
1Y
1f
1A
1-
1M
1d
1G
1%
b100 $
0(
02
0[
0g
b100 3
b100 j
11
1O
1e
b101 a
b1101 U
b111 b
b1011 V
b1010 E
b110 ^
b101 _
b111 J
b110 ;
b110 a
b101 =
b111 9
b101 b
b111 P
b101 I
bz00000110 i
b1100000 k
b1100000 5
b1100000 !
#7000
0&
0)
0/
0Y
0f
0A
0-
0M
0d
0G
#7100
1&
1)
1/
1Y
1f
1A
1-
1M
1d
1G
0%
1(
b1100000 +
12
1[
1g
01
0O
0e
b111 a
b1100 U
b100 b
b1010 V
b1010 D
b101 K
b1101 R
b1011 S
b1010 8
b1101 :
b1101 U
b1011 <
b1011 V
b1011 C
bz00001101 h
b1010 \
#7200
0&
0)
0/
0Y
0f
0A
0-
0M
0d
0G
#7300
1&
1)
1/
1Y
1f
1A
1-
1M
1d
1G
1%
b11001101 $
0(
02
0[
0g
b11001101 3
b11001101 j
11
1O
1e
b110 a
b1110 U
b101 b
b1001 V
b1011 E
b111 ^
b100 _
b101 J
b111 ;
b111 a
b100 =
b101 9
b100 b
b101 P
b100 I
bz00000111 i
b1001001 k
b1001001 5
b1001001 !
#7400
0&
0)
0/
0Y
0f
0A
0-
0M
0d
0G
#7500
1&
1)
1/
1Y
1f
1A
1-
1M
1d
1G
0%
1(
b1001001 +
12
1[
1g
01
0O
0e
b1000 a
b1101 U
b1100 b
b1011 V
b1011 D
b100 K
b1110 R
b1001 S
b1011 8
b1110 :
b1110 U
b1001 <
b1001 V
b1001 C
bz00001110 h
b1011 \
#7600
0&
0)
0/
0Y
0f
0A
0-
0M
0d
0G
#7700
1&
1)
1/
1Y
1f
1A
1-
1M
1d
1G
1%
b10000100 $
0(
02
0[
0g
b10000100 3
b10000100 j
11
1O
1e
b111 a
b1111 U
b100 b
b1000 V
b1001 E
b1000 ^
b1100 _
b100 J
b1000 ;
b1000 a
b1100 =
b100 9
b1100 b
b100 P
b1100 I
bz00001000 i
b10101 k
b10101 5
b10101 !
#7800
0&
0)
0/
0Y
0f
0A
0-
0M
0d
0G
#7900
1&
1)
1/
1Y
1f
1A
1-
1M
1d
1G
0%
1(
b10101 +
12
1[
1g
01
0O
0e
b1001 a
b1110 U
b1101 b
b1001 V
b1001 D
b1100 K
b1111 R
b1000 S
b1001 8
b1111 :
b1111 U
b1000 <
b1000 V
b1000 C
bz00001111 h
b1001 \
#8000
0&
0)
0/
0Y
0f
0A
0-
0M
0d
0G
#8100
1&
1)
1/
1Y
1f
1A
1-
1M
1d
1G
1%
b11010111 $
0(
02
0[
0g
b11010111 3
b11010111 j
11
1O
1e
b1000 a
b10000 U
b1100 b
b11000 V
b1000 E
b1001 ^
b1101 _
b1100 J
b1001 ;
b1001 a
b1101 =
b1100 9
b1101 b
b1100 P
b1101 I
bz00001001 i
b10101110 k
b10101110 5
b10101110 !
#8200
0&
0)
0/
0Y
0f
0A
0-
0M
0d
0G
#8300
1&
1)
1/
1Y
1f
1A
1-
1M
1d
1G
0%
1(
b10101110 +
12
1[
1g
01
0O
0e
b1010 a
b1111 U
b1111 b
b1000 V
b1000 D
b1101 K
b10000 R
b11000 S
b1000 8
b10000 :
b10000 U
b11000 <
b11000 V
b11000 C
bz00010000 h
b1000 \
#8400
0&
0)
0/
0Y
0f
0A
0-
0M
0d
0G
#8500
1&
1)
1/
1Y
1f
1A
1-
1M
1d
1G
1%
b11001101 $
0(
02
0[
0g
b11001101 3
b11001101 j
11
1O
1e
b1001 a
b10001 U
b1101 b
b11001 V
b11000 E
b1010 ^
b1111 _
b1101 J
b1010 ;
b1010 a
b1111 =
b1101 9
b1111 b
b1101 P
b1111 I
bz00001010 i
b10100101 k
b10100101 5
b10100101 !
#8600
0&
0)
0/
0Y
0f
0A
0-
0M
0d
0G
#8700
1&
1)
1/
1Y
1f
1A
1-
1M
1d
1G
0%
1(
b10100101 +
12
1[
1g
01
0O
0e
b1011 a
b10000 U
b1110 b
b11000 V
b11000 D
b1111 K
b10001 R
b11001 S
b11000 8
b10001 :
b10001 U
b11001 <
b11001 V
b11001 C
bz00010001 h
b11000 \
#8800
0&
0)
0/
0Y
0f
0A
0-
0M
0d
0G
#8900
1&
1)
1/
1Y
1f
1A
1-
1M
1d
1G
1%
b101111 $
0(
02
0[
0g
b101111 3
b101111 j
11
1O
1e
b1010 a
b10010 U
b1111 b
b11011 V
b11001 E
b1011 ^
b1110 _
b1111 J
b1011 ;
b1011 a
b1110 =
b1111 9
b1110 b
b1111 P
b1110 I
bz00001011 i
b10101101 k
b10101101 5
b10101101 !
#9000
0&
0)
0/
0Y
0f
0A
0-
0M
0d
0G
#9100
1&
1)
1/
1Y
1f
1A
1-
1M
1d
1G
0%
1(
b10101101 +
12
1[
1g
01
0O
0e
b1100 a
b10001 U
b1010 b
b11001 V
b11001 D
b1110 K
b10010 R
b11011 S
b11001 8
b10010 :
b10010 U
b11011 <
b11011 V
b11011 C
bz00010010 h
b11001 \
#9200
0&
0)
0/
0Y
0f
0A
0-
0M
0d
0G
#9300
1&
1)
1/
1Y
1f
1A
1-
1M
1d
1G
1%
b11011100 $
0(
02
0[
0g
b11011100 3
b11011100 j
11
1O
1e
b1011 a
b10011 U
b1110 b
b11010 V
b11011 E
b1100 ^
b1010 _
b1110 J
b1100 ;
b1100 a
b1010 =
b1110 9
b1010 b
b1110 P
b1010 I
bz00001100 i
b100 k
b100 5
b100 !
#9400
0&
0)
0/
0Y
0f
0A
0-
0M
0d
0G
#9500
1&
1)
1/
1Y
1f
1A
1-
1M
1d
1G
0%
1(
b100 +
12
1[
1g
01
0O
0e
b1101 a
b10010 U
b1011 b
b11011 V
b11011 D
b1010 K
b10011 R
b11010 S
b11011 8
b10011 :
b10011 U
b11010 <
b11010 V
b11010 C
bz00010011 h
b11011 \
#9600
0&
0)
0/
0Y
0f
0A
0-
0M
0d
0G
#9700
1&
1)
1/
1Y
1f
1A
1-
1M
1d
1G
1%
b11111001 $
0(
02
0[
0g
b11111001 3
b11111001 j
11
1O
1e
b1100 a
b10100 U
b1010 b
b11110 V
b11010 E
b1101 ^
b1011 _
b1010 J
b1101 ;
b1101 a
b1011 =
b1010 9
b1011 b
b1010 P
b1011 I
bz00001101 i
b11001101 k
b11001101 5
b11001101 !
#9800
0&
0)
0/
0Y
0f
0A
0-
0M
0d
0G
#9900
1&
1)
1/
1Y
1f
1A
1-
1M
1d
1G
0%
1(
b11001101 +
12
1[
1g
01
0O
0e
b1110 a
b10011 U
b1001 b
b11010 V
b11010 D
b1011 K
b10100 R
b11110 S
b11010 8
b10100 :
b10100 U
b11110 <
b11110 V
b11110 C
bz00010100 h
b11010 \
#10000
0&
0)
0/
0Y
0f
0A
0-
0M
0d
0G
#10100
1&
1)
1/
1Y
1f
1A
1-
1M
1d
1G
1%
b10110000 $
0(
02
0[
0g
b10110000 3
b10110000 j
11
1O
1e
b1101 a
b10101 U
b1011 b
b11111 V
b11110 E
b1110 ^
b1001 _
b1011 J
b1110 ;
b1110 a
b1001 =
b1011 9
b1001 b
b1011 P
b1001 I
bz00001110 i
b10000100 k
b10000100 5
b10000100 !
#10200
0&
0)
0/
0Y
0f
0A
0-
0M
0d
0G
#10300
1&
1)
1/
1Y
1f
1A
1-
1M
1d
1G
0%
1(
b10000100 +
12
1[
1g
01
0O
0e
b1111 a
b10100 U
b1000 b
b11110 V
b11110 D
b1001 K
b10101 R
b11111 S
b11110 8
b10101 :
b10101 U
b11111 <
b11111 V
b11111 C
bz00010101 h
b11110 \
#10400
0&
0)
0/
0Y
0f
0A
0-
0M
0d
0G
#10500
1&
1)
1/
1Y
1f
1A
1-
1M
1d
1G
1%
b10100011 $
0(
02
0[
0g
b10100011 3
b10100011 j
11
1O
1e
b1110 a
b10110 U
b1001 b
b11101 V
b11111 E
b1111 ^
b1000 _
b1001 J
b1111 ;
b1111 a
b1000 =
b1001 9
b1000 b
b1001 P
b1000 I
bz00001111 i
b11010111 k
b11010111 5
b11010111 !
#10600
0&
0)
0/
0Y
0f
0A
0-
0M
0d
0G
#10700
1&
1)
1/
1Y
1f
1A
1-
1M
1d
1G
0%
1(
b11010111 +
12
1[
1g
01
0O
0e
b10000 a
b10101 U
b11000 b
b11111 V
b11111 D
b1000 K
b10110 R
b11101 S
b11111 8
b10110 :
b10110 U
b11101 <
b11101 V
b11101 C
bz00010110 h
b11111 \
#10800
0&
0)
0/
0Y
0f
0A
0-
0M
0d
0G
#10900
1&
1)
1/
1Y
1f
1A
1-
1M
1d
1G
1%
b10010011 $
0(
02
0[
0g
b10010011 3
b10010011 j
11
1O
1e
b1111 a
b10111 U
b1000 b
b11100 V
b11101 E
b10000 ^
b11000 _
b1000 J
b10000 ;
b10000 a
b11000 =
b1000 9
b11000 b
b1000 P
b11000 I
bz00010000 i
b11001101 k
b11001101 5
b11001101 !
#11000
0&
0)
0/
0Y
0f
0A
0-
0M
0d
0G
#11100
1&
1)
1/
1Y
1f
1A
1-
1M
1d
1G
0%
1(
b11001101 +
12
1[
1g
01
0O
0e
b10001 a
b10110 U
b11001 b
b11101 V
b11101 D
b11000 K
b10111 R
b11100 S
b11101 8
b10111 :
b10111 U
b11100 <
b11100 V
b11100 C
bz00010111 h
b11101 \
#11200
0&
0)
0/
0Y
0f
0A
0-
0M
0d
0G
#11300
1&
1)
1/
1Y
1f
1A
1-
1M
1d
1G
1%
b10010001 $
0(
02
0[
0g
b10010001 3
b10010001 j
11
1O
1e
b10000 a
b11000 U
b11000 b
b10100 V
b11100 E
b10001 ^
b11001 _
b11000 J
b10001 ;
b10001 a
b11001 =
b11000 9
b11001 b
b11000 P
b11001 I
bz00010001 i
b101111 k
b101111 5
b101111 !
#11400
0&
0)
0/
0Y
0f
0A
0-
0M
0d
0G
#11500
1&
1)
1/
1Y
1f
1A
1-
1M
1d
1G
0%
1(
b101111 +
12
1[
1g
01
0O
0e
b10010 a
b10111 U
b11011 b
b11100 V
b11100 D
b11001 K
b11000 R
b10100 S
b11100 8
b11000 :
b11000 U
b10100 <
b10100 V
b10100 C
bz00011000 h
b11100 \
#11600
0&
0)
0/
0Y
0f
0A
0-
0M
0d
0G
#11700
1&
1)
1/
1Y
1f
1A
1-
1M
1d
1G
1%
b101000 $
0(
02
0[
0g
b101000 3
b101000 j
11
1O
1e
b10001 a
b11001 U
b11001 b
b10101 V
b10100 E
b10010 ^
b11011 _
b11001 J
b10010 ;
b10010 a
b11011 =
b11001 9
b11011 b
b11001 P
b11011 I
bz00010010 i
b11011100 k
b11011100 5
b11011100 !
#11800
0&
0)
0/
0Y
0f
0A
0-
0M
0d
0G
#11900
1&
1)
1/
1Y
1f
1A
1-
1M
1d
1G
0%
1(
b11011100 +
12
1[
1g
01
0O
0e
b10011 a
b11000 U
b11010 b
b10100 V
b10100 D
b11011 K
b11001 R
b10101 S
b10100 8
b11001 :
b11001 U
b10101 <
b10101 V
b10101 C
bz00011001 h
b10100 \
#12000
0&
0)
0/
0Y
0f
0A
0-
0M
0d
0G
#12100
1&
1)
1/
1Y
1f
1A
1-
1M
1d
1G
1%
b11110110 $
0(
02
0[
0g
b11110110 3
b11110110 j
11
1O
1e
b10010 a
b11010 U
b11011 b
b10111 V
b10101 E
b10011 ^
b11010 _
b11011 J
b10011 ;
b10011 a
b11010 =
b11011 9
b11010 b
b11011 P
b11010 I
bz00010011 i
b11111001 k
b11111001 5
b11111001 !
#12200
0&
0)
0/
0Y
0f
0A
0-
0M
0d
0G
#12300
1&
1)
1/
1Y
1f
1A
1-
1M
1d
1G
0%
1(
b11111001 +
12
1[
1g
01
0O
0e
b10100 a
b11001 U
b11110 b
b10101 V
b10101 D
b11010 K
b11010 R
b10111 S
b10101 8
b11010 :
b11010 U
b10111 <
b10111 V
b10111 C
bz00011010 h
b10101 \
#12400
0&
0)
0/
0Y
0f
0A
0-
0M
0d
0G
#12500
1&
1)
1/
1Y
1f
1A
1-
1M
1d
1G
1%
b10010110 $
0(
02
0[
0g
b10010110 3
b10010110 j
11
1O
1e
b10011 a
b11011 U
b11010 b
b10110 V
b10111 E
b10100 ^
b11110 _
b11010 J
b10100 ;
b10100 a
b11110 =
b11010 9
b11110 b
b11010 P
b11110 I
bz00010100 i
b10110000 k
b10110000 5
b10110000 !
#12600
0&
0)
0/
0Y
0f
0A
0-
0M
0d
0G
#12700
1&
1)
1/
1Y
1f
1A
1-
1M
1d
1G
0%
1(
b10110000 +
12
1[
1g
01
0O
0e
b10101 a
b11010 U
b11111 b
b10111 V
b10111 D
b11110 K
b11011 R
b10110 S
b10111 8
b11011 :
b11011 U
b10110 <
b10110 V
b10110 C
bz00011011 h
b10111 \
#12800
0&
0)
0/
0Y
0f
0A
0-
0M
0d
0G
#12900
1&
1)
1/
1Y
1f
1A
1-
1M
1d
1G
1%
b100010 $
0(
02
0[
0g
b100010 3
b100010 j
11
1O
1e
b10100 a
b11100 U
b11110 b
b10010 V
b10110 E
b10101 ^
b11111 _
b11110 J
b10101 ;
b10101 a
b11111 =
b11110 9
b11111 b
b11110 P
b11111 I
bz00010101 i
b10100011 k
b10100011 5
b10100011 !
#13000
0&
0)
0/
0Y
0f
0A
0-
0M
0d
0G
#13100
1&
1)
1/
1Y
1f
1A
1-
1M
1d
1G
0%
1(
b10100011 +
12
1[
1g
01
0O
0e
b10110 a
b11011 U
b11101 b
b10110 V
b10110 D
b11111 K
b11100 R
b10010 S
b10110 8
b11100 :
b11100 U
b10010 <
b10010 V
b10010 C
bz00011100 h
b10110 \
#13200
0&
0)
0/
0Y
0f
0A
0-
0M
0d
0G
#13300
1&
1)
1/
1Y
1f
1A
1-
1M
1d
1G
1%
b10010011 $
0(
02
0[
0g
b10010011 3
b10010011 j
11
1O
1e
b10101 a
b11101 U
b11111 b
b10011 V
b10010 E
b10110 ^
b11101 _
b11111 J
b10110 ;
b10110 a
b11101 =
b11111 9
b11101 b
b11111 P
b11101 I
bz00010110 i
b10010011 k
b10010011 5
b10010011 !
#13400
0&
0)
0/
0Y
0f
0A
0-
0M
0d
0G
#13500
1&
1)
1/
1Y
1f
1A
1-
1M
1d
1G
0%
1(
b10010011 +
12
1[
1g
01
0O
0e
b10111 a
b11100 U
b11100 b
b10010 V
b10010 D
b11101 K
b11101 R
b10011 S
b10010 8
b11101 :
b11101 U
b10011 <
b10011 V
b10011 C
bz00011101 h
b10010 \
#13600
0&
0)
0/
0Y
0f
0A
0-
0M
0d
0G
#13700
1&
1)
1/
1Y
1f
1A
1-
1M
1d
1G
1%
b11001101 $
0(
02
0[
0g
b11001101 3
b11001101 j
11
1O
1e
b10110 a
b11110 U
b11101 b
b10001 V
b10011 E
b10111 ^
b11100 _
b11101 J
b10111 ;
b10111 a
b11100 =
b11101 9
b11100 b
b11101 P
b11100 I
bz00010111 i
b10010001 k
b10010001 5
b10010001 !
#13800
0&
0)
0/
0Y
0f
0A
0-
0M
0d
0G
#13900
1&
1)
1/
1Y
1f
1A
1-
1M
1d
1G
0%
1(
b10010001 +
12
1[
1g
01
0O
0e
b11000 a
b11101 U
b10100 b
b10011 V
b10011 D
b11100 K
b11110 R
b10001 S
b10011 8
b11110 :
b11110 U
b10001 <
b10001 V
b10001 C
bz00011110 h
b10011 \
#14000
0&
0)
0/
0Y
0f
0A
0-
0M
0d
0G
#14100
1&
1)
1/
1Y
1f
1A
1-
1M
1d
1G
0(
02
0[
0g
b10111 a
b11100 b
b10001 E
b11000 ^
b10100 _
b11100 J
b11000 ;
b11000 a
b10100 =
b11100 9
b10100 b
b11100 P
b10100 I
bz00011000 i
b101000 k
b101000 5
b101000 !
#14200
0&
0)
0/
0Y
0f
0A
0-
0M
0d
0G
#14300
1&
1)
1/
1Y
1f
1A
1-
1M
1d
1G
1(
b101000 +
12
1[
1g
b11001 a
b10101 b
b10001 D
b10100 K
b10001 8
b10001 \
#14400
0&
0)
0/
0Y
0f
0A
0-
0M
0d
0G
#14500
1&
1)
1/
1Y
1f
1A
1-
1M
1d
1G
0(
02
0[
0g
b11000 a
b10100 b
b11001 ^
b10101 _
b10100 J
b11001 ;
b11001 a
b10101 =
b10100 9
b10101 b
b10100 P
b10101 I
bz00011001 i
b11110110 k
b11110110 5
b11110110 !
#14600
0&
0)
0/
0Y
0f
0A
0-
0M
0d
0G
#14700
1&
1)
1/
1Y
1f
1A
1-
1M
1d
1G
1(
b11110110 +
12
1[
1g
b11010 a
b10111 b
b10101 K
